{
	"version": 11,
	"hipSpectralFile": "stars_hip_sp_0v0_3.cat",
	"hipComponentsIdsFile": "stars_hip_cids_0v0_0.cat",
	"catalogs":
	[
		{
			"id": "stars0",
			"fileName": "stars_0_0v0_8.cat",
			"count": 0.005,
			"magRange": [-2, 6],
			"sizeMb": 0.1,
			"checksum": "d352af9a589da4dec11424e902c572bb",
			"checked": true
		},
		{
			"id": "stars1",
			"fileName": "stars_1_0v0_8.cat",
			"count": 0.022,
			"magRange": [6, 7.5],
			"sizeMb": 0.6,
			"checksum": "db74c17e4822bb5b2f791e994d0e6676",
			"checked": true
		},
		{
			"id": "stars2",
			"fileName": "stars_2_0v0_8.cat",
			"count": 0.15,
			"magRange": [7.5, 9],
			"sizeMb": 4.1,
			"checksum": "e7d864c4fff3f42f524fa06d9e46aca8",
			"checked": true
		},
		{
			"id": "stars3",
			"fileName": "stars_3_1v0_4.cat",
			"count": 0.43,
			"magRange": [9, 10.5],
			"sizeMb": 4.1,
			"checksum": "9dc01a4cb2fb797b7e193da45c6cfe85",
			"checked": true
		},
		{
			"id": "stars4",
			"fileName": "stars_4_1v0_2.cat",
			"count": 1.7,
			"magRange": [10.5, 12],
			"sizeMb": 17,
			"url": "https://github.com/Stellarium/stellarium-data/releases/download/stars-2.0/stars_4_1v0_2.cat",
			"checksum": "ac67dc390f9d414d61b1db76a5b820e9",
			"checked": false
		},
		{
			"id": "stars5",
			"fileName": "stars_5_2v0_1.cat",
			"count": 7.1,
			"magRange": [12, 13.5],
			"sizeMb": 41,
			"url": "https://github.com/Stellarium/stellarium-data/releases/download/stars-2.0/stars_5_2v0_1.cat",
			"checksum": "50e798428d9402766805da5cf0e8e819",
			"checked": false
		},
		{
			"id": "stars6",
			"fileName": "stars_6_2v0_1.cat",
			"count": 24.7,
			"magRange": [13.5, 15],
			"sizeMb": 142,
			"url": "https://github.com/Stellarium/stellarium-data/releases/download/stars-2.0/stars_6_2v0_1.cat",
			"checksum": "3005959bf7baca36d266def2fecf36d3",
			"checked": false
		},
		{
			"id": "stars7",
			"fileName": "stars_7_2v0_1.cat",
			"count": 50.8,
			"magRange": [15, 16.5],
			"sizeMb": 292,
			"url": "https://github.com/Stellarium/stellarium-data/releases/download/stars-2.0/stars_7_2v0_1.cat",
			"checksum": "15f856fb4c7830a71cb8d60e1decc387",
			"checked": false
		},
		{
			"id": "stars8",
			"fileName": "stars_8_2v0_1.cat",
			"count": 92.3,
			"magRange": [16.5, 18],
			"sizeMb": 534,
			"url": "https://github.com/Stellarium/stellarium-data/releases/download/stars-2.0/stars_8_2v0_1.cat",
			"checksum": "9e2e362022824c60d7e4d94ef8c3af12",
			"checked": false
		}
	]
}
